<svg width="30" height="39" viewBox="0 0 30 39" fill="none" xmlns="http://www.w3.org/2000/svg">
<path d="M26.25 7.15524H21.2695V5.4254C21.2695 4.01008 20.9082 2.81754 20.1855 1.84778C19.4629 0.878024 18.5742 0.393145 17.5195 0.393145H12.4805C11.4258 0.393145 10.5371 0.878024 9.81445 1.84778C9.0918 2.81754 8.73047 4.01008 8.73047 5.4254V7.15524H3.75C2.69531 7.15524 1.80664 7.62701 1.08398 8.57056C0.361328 9.51411 0 10.7198 0 12.1875V18.871C0 19.9718 0.410156 20.5222 1.23047 20.5222V33.9677C1.23047 34.8589 1.48438 35.6452 1.99219 36.3266C2.5 37.0081 3.08594 37.3488 3.75 37.3488H26.25C26.9141 37.3488 27.5 37.0081 28.0078 36.3266C28.5156 35.6452 28.7695 34.8589 28.7695 33.9677V20.5222C29.5898 20.5222 30 19.9718 30 18.871V12.1875C30 10.7198 29.6387 9.51411 28.916 8.57056C28.1934 7.62701 27.3047 7.15524 26.25 7.15524ZM11.25 5.4254C11.25 4.95363 11.3672 4.56048 11.6016 4.24597C11.8359 3.93145 12.1289 3.77419 12.4805 3.77419H17.5195C17.8711 3.77419 18.1641 3.93145 18.3984 4.24597C18.6328 4.56048 18.75 4.95363 18.75 5.4254V7.15524H11.25V5.4254ZM3.75 33.9677V20.5222H11.25V25.5544C11.25 26.498 11.4941 27.2974 11.9824 27.9526C12.4707 28.6079 13.0664 28.9355 13.7695 28.9355H16.2305C16.9336 28.9355 17.5293 28.6079 18.0176 27.9526C18.5059 27.2974 18.75 26.498 18.75 25.5544V20.5222H26.25V33.9677H3.75ZM13.7695 25.5544V20.5222H16.2305V25.5544H13.7695ZM27.4805 17.2198H2.51953V12.1875C2.51953 11.0343 2.92969 10.4577 3.75 10.4577H26.25C27.0703 10.4577 27.4805 11.0343 27.4805 12.1875V17.2198Z" fill="black"/>
</svg>
